{
    "rutas" : [
        {
            "titulo":"Servicios",
            "icono":"perm_identity",
            "ruta":"servicios",
            "restriccion":4,
            "asistencia":0,
            "habilitado_conduccion":0
        },
        {
            "titulo":"Login",
            "icono":"perm_identity",
            "ruta":"login",
            "restriccion":4,
            "asistencia":0,
            "habilitado_conduccion":0
        }  
    ]
}
